20
20
20
20
20
20
20
20
20
20
20
53
43
52
41
4C
49
4E
47
53
20
20
20
20
20
20
20
20
20
20
20
20
20
20
20
20
20
20
20
20
20
20
20
53
55
56
45
52
4D
41
4E
20
20
20
20
20
20
20
20
20
20
20
20
20
20
20
20
20
20
20
20
20
46
52
45
44
45
52
49
43
20
4D
41
48
45
20
20
20
20
20
20
20
20
20
20
20
20
20
20
20
20
20
20
20
4A
4F
20
54
4F
4D
49
59
4F
52
49
20
20
20
20
20
20
20
20
20
20
20
20
20
20
20
20
20
20
20
20
20
20
42
52
49
41
4E
20
53
41
4C
4C
45
45
20
20
20
20
20
20
20
20
20
20
20
20
20
20
20
20
20
20
50
48
49
4C
4C
49
50
20
4D
43
4D
41
48
4F
4E
20
20
20
20
20
20
20
20
20
20
20
20
20
20
20
20
20
20
44
55
53
54
49
4E
20
48
55
42
42
41
52
44
20
20
20
20
20
20
20
20
20
20
20
20
20
20
20
20
20
20
20
44
41
4E
49
45
4C
20
42
41
55
5A
41
20
20
20
20
20
20
20
20
20
20
20
20
20
20
20
20
20
20
20
41
52
43
41
44
45
20
45
58
50
52
45
53
53
20
20
20
20
20
20
20
20
20
20
20
20
20
20
20
20
20
20
20
20
20
20
20
20
20
20
20
20
20
20
20
20
20
20
20
20
20
20
20
20
20
20
20
20
20
20
20
20
20
20
20
20
20
20
20
20
20
20
20
20
20
20
20
20
20
20
20
20
20
20
20
20
20
20
20
20
20
20
20
20
20
20
20
20
20
20
20
20
20
20
20
20
20
20
20
20
20
20
20
20
20
20
20
20
20
20
20
20
20
20
20
20
20
20
20
20
20
20
20
20
20
20
20
20
20
20
20
20
20
20
20
20
20
20
20
20
20
20
20
20
20
20
20
20
20
20
20
20
20
20
20
20
20
20
20
20
20
20
20
20
20
20
20
20
20
20
20
20
20
20
20
20
20
20
20
20
20
20
20
20
20
20
20
20
20
20
20
20
20
20
20
20
20
20
20
20
20
20
20
20
20
20
20
20
20
20
20
20
20
20
20
20
20
20
20
20
20
20
20
20
20
20
20
20
20
20
20
20
20
20
20
20
20
20
