20
20
20
20
20
20
20
20
20
20
20
F3
E3
F2
E1
EC
E9
EE
E7
F3
20
20
20
20
20
20
20
20
20
20
20
20
20
20
20
20
20
20
20
20
20
20
20
F3
F5
F6
E5
F2
ED
E1
EE
20
20
20
20
20
20
20
20
20
20
20
20
20
20
20
20
20
20
20
20
20
E6
F2
E5
E4
E5
F2
E9
E3
20
ED
E1
E8
E5
20
20
20
20
20
20
20
20
20
20
20
20
20
20
20
20
20
20
20
EA
EF
20
F4
EF
ED
E9
F9
EF
F2
E9
20
20
20
20
20
20
20
20
20
20
20
20
20
20
20
20
20
20
20
20
20
20
E2
F2
E9
E1
EE
20
F3
E1
EC
EC
E5
E5
20
20
20
20
20
20
20
20
20
20
20
20
20
20
20
20
20
20
F0
E8
E9
EC
EC
E9
F0
20
ED
E3
ED
E1
E8
EF
EE
20
20
20
20
20
20
20
20
20
20
20
20
20
20
20
20
20
20
E4
F5
F3
F4
E9
EE
20
E8
F5
E2
E2
E1
F2
E4
20
20
20
20
20
20
20
20
20
20
20
20
20
20
20
20
20
20
20
E4
E1
EE
E9
E5
EC
20
E2
E1
F5
FA
E1
20
20
20
20
20
20
20
20
20
20
20
20
20
20
20
20
20
20
20
20
20
20
20
20
20
20
20
20
20
20
20
20
20
20
20
20
20
20
20
20
20
20
20
20
20
20
20
20
20
20
20
20
20
20
20
20
20
20
20
20
20
20
20
20
20
20
20
20
20
20
20
20
20
20
20
20
20
20
20
20
20
20
20
20
20
20
20
20
20
20
20
20
20
20
20
20
20
20
20
20
20
20
20
20
20
20
20
20
20
20
20
20
20
20
20
20
20
20
20
20
20
20
20
20
20
20
20
20
20
20
20
20
20
20
20
20
20
20
20
20
20
20
20
20
20
20
20
20
20
20
20
20
20
20
20
20
20
20
20
20
20
20
20
20
20
20
20
20
20
20
20
20
20
20
20
20
20
20
20
20
20
20
20
20
20
20
20
20
20
20
20
20
20
20
20
20
20
20
20
20
20
20
20
20
20
20
20
20
20
20
20
20
20
20
20
20
20
20
20
20
20
20
20
20
20
20
20
20
20
20
20
20
20
20
20
20
20
20
20
20
20
20
20
20
20
20
20
20
20
20
20
20
20
20
20
20
20
20
20
20
20
20
20
20
20
20
20
