:1000000086021F8B160D9510040140CFF3FC3F3084
:100010000C03C001401004FC3FCFF303C0300C0CB4
:10002000370CAA1911000000000000000028432925
:100030002E313938312E54484520494D414745200D
:1000400050524F4455434552532C20494E434C4F38
:100050005520484145484E2A2A2047414C414354A7
:1000600049432041545441434B202A2A53434F5281
:10007000453A484947482053434F52453A20203E8D
:100080003E50524553532046495245204255545400
:100090004F4E20544F20424547494E3C3C20C00320
:1000A00000C28300F9AF00CAA300C28300C03000C1
:1000B000CA3000F6F000CA3000CA3000C0C000C824
:1000C000C000E6C000EAC000C8C000C00000C00018
:1000D00000400000C00000C0000000000000000060
:1000E000F7C000000000000000CC0000EC0000DCC5
:1000F0000000EC0000EC0000000000FDC0002580C6
:1001000000FFC000000000FFC0000A0000298000BE
:100110000A0000FFC000002000009800002000003E
:10012000000000A800029A00025600054540003079
:1001300000C030A0C03E9BC032A8C030A0C0300C70
:1001400000328C003E7C00328C00328C003030005B
:100150003230003AB00039B0003230003300003B9A
:1001600000003B00003900003B0000300000300080
:1001700000300000300000300000000000000000EF
:100180003F70000000000000000000003FF0000988
:1001900060003FF0000000003FF000028000098096
:1001A000000280003FF00000080000260000080068
:1001B000000000002A0000A6800095800151500038
:1001C0000C00300C28300FAAF00CA6300C2830039D
:1001D00000C00328C003EBC00318C00328C00C0CE8
:1001E000000C8C000E6C000EAC000C8C000CC000DF
:1001F0000EC0000DC0000E80000EC0000C00000CF0
:1002000000000400000C00000C00000000000000D2
:10021000000F7C000000000000000000000FDC0068
:100220000258000FFC000000000FFC0000A00002BC
:10023000980000A0000FFC000000020000098000F0
:100240000200000000000A800029A0002560005480
:10025000540003000C030A0C03EABC03268C030AB7
:100260000C0C03000CA3000FAF000C93000CA300B8
:1002700003030003230003AB00039B0003230003DD
:10028000300003B00003B00003900003B00003008F
:100290000003000003000003000001000003000051
:1002A00000000000000003F7000000000000000054
:1002B000000003FF0000960003FF0000000003FFA2
:1002C00000002800009A0000280003FF0000000042
:1002D000800002600000800000000002A0000A68A8
:1002E00000095800151500000000300001FD00173E
:1002F00077505FDFD417775001FD0000300015A95B
:10030000999999A814A4242425A815A919A895A8F1
:1003100015A9092919A8119999A9090815A895A934
:1003200019A815A895A999A815A90824242015A9E4
:1003300099A999A815A999A919A8011601A702397F
:1003400002CE023A02CF011601A7009E012F01C082
:10035000025200AD013E026101CF00BC014D01DE41
:10036000027000E9015C01ED027F00CB016B01FC32
:10037000028E00DA017A020B02A000F80189021A4B
:1003800002AF01070198022902BE00F80189021A92
:1003900002AF00DA017A020B02A000CB016B01FC74
:1003A000028E00E9015C01ED027F00BC014D01DE1F
:1003B000027000AD013E026101CF009E012F01C01D
:1003C000025210CE01F8CE01501609D38E040086D9
:1003D00000A7808C100026F98EFFC4C60886048A08
:1003E000018D0686C0B7FF22394624063001A7805A
:1003F0002002A7815A26F23934484F1F8BAD9FA0A7
:100400000AB60258BB015CB7025835C84C34024AE0
:1004100026FD35024A26F639860897134F5F301FAE
:10042000ED84ED023088200A1326F53986089713EB
:10043000ECA4A4849A1F971FE401DA1FD71FA622F9
:10044000A4029A1F971FECA1AA84EA01ED84A6A03A
:10045000AA02A7023088200A1326D53986059713E9
:10046000ECA1AA84EA01ED84A6A0AA02A702308822
:10047000200A1326EB3986089713C603A684840C3A
:10048000810C27014FAAA0A7805A26F030881D0AA8
:100490001326E739C6BCF7FF233986089713ECA16A
:1004A000A884E801ED84A6A0A802A7023088200A4B
:1004B0001326EB3996179E19108E028B0D18270400
:1004C000108E02934810AEA6109F1D8DA917FF280D
:1004D0009E19B6015C489116274024218680D618C3
:1004E0009718D11826340A162A060F160F17202A35
:1004F00096174A2A04301F86039717201D9616D692
:10050000180F18D11826134C8171270E97169617BD
:100510004C8104260330014F97179F1939B6FF000D
:10052000B6FF02B6FF20B6FF22138E0390108E0393
:10053000B0EEA16D802612335F86056FC46F416FE8
:10054000426F4333C8204A26F28C039826E3CE013B
:10055000509E1917FEC21708EC1700A30D4D261365
:10056000D64C8E029B5858DB41583A10AE849E3FC1
:1005700017FEE9964E4C810826014F974E26DA9ECB
:1005800019109E1D17FEA5108E0380CE0000AEA48C
:100590009F3F6DC903902646A6C903A09741964286
:1005A0009747A6C90398810E262B86070C499449C4
:1005B00026141F10C41FD746DC194FC41FD146276D
:1005C0000522014A97428620D603C4EF5454545C56
:1005D0003DD33FDD3F1700B4964797429E3FAFA102
:1005E0009641A7C903A03341308900E09C4A250207
:1005F0009F4A108C03902696CE01501700E539C60D
:1006000008D13C263D0F4E0F420F3C0F3D1702EC28
:10061000866097801703D61703DA1703DE0A802651
:10062000F30C0396854A26014C978597839688B7E5
:10063000FF220F1B17073417065A17FE779E19174C
:10064000FDD6D64E4F1F02581F01A6A90390974D05
:100650002639A6A90398974CEC8903809F4FDD3F6C
:10066000ED8903B0A6A903A09741964C271D810EE2
:1006700027190C488601944826116CA9039810AEDE
:1006800089038031A8E010AF890380399E3F1F1095
:1006900096410D422A040A4120020C41D841C41F50
:1006A000C11F26069741D73E201AD64196422A0CF2
:1006B000C1FF2610301F860397412008C10426047D
:1006C00030010F419F3F8C04E022073088209F3F7C
:1006D00020108C1000250B1F10830B20DD3F86C0DF
:1006E0009788390D3E27100F3E0C870D422A040FC4
:1006F00042200486809742390D5727560D04265311
:10070000B6FF008402264C0F570F560A049E19307C
:1007100088E10D182A080D17260C301F20088603C3
:100720009117260230019F54308DF8DB0D182704F5
:10073000308DF8DF9617E686D7518B04E686D752C0
:100740008B04E686D7539E54A6849A51A7848D08BD
:100750008D1739861116FCB49E543088E08C04C085
:1007600022040A5620029F54390D57263896519874
:100770005397519E54A6841F89D451270A0A7CA6F8
:1007800088209452A788209A51AA84A78430884050
:10079000A6849452A7848DC00D5627090A579E54EB
:1007A0006F846F88203996584698589B589758847C
:1007B000019759398DF0D658C407D11426035C200F
:1007C000F7D7144F1F01390F5A8DDB0D5927238D91
:1007D000E36D890390261BA6890398B70002BF002A
:1007E000001F10581F0110AE89038031A90121108C
:1007F0009F5A39AEA9025C3088208C100025066A09
:10080000A902622004AFA9025C396DA90268263AE8
:10081000AEA9025CA6841F89C10C270CC40C270852
:100820000A1B6F88E0109F7A8A0CA7843088C0A6C4
:100830008484F3A7848DBC6DA90262270D6AA90286
:1008400068AEA9025C6F846F88E0399103223D6D28
:10085000A902682737342017FF6D35200D5A272C41
:10086000860EB100022625DC5A10830E80221D6FF1
:10087000A902686FA90262DC5AEDA9025C10830B21
:10088000002509BE00008601A7890398390D7C2741
:100890006A8E03C0108E03988608977EEC836DA243
:1008A00026051093542F080A7E26F10F7C204CC396
:1008B00000A01093542DF030033121A6836DA226A1
:1008C0000E841FD655C41F977FD07FC10325080A09
:1008D0007E26E80F7C20240C3D0C3C6AA40A57ECD1
:1008E000821F019F43318DF9FD17FB400F1F0A7EC8
:1008F0009E7DA68903984C97849745390D7C2736B1
:1009000017FB91B6FF228A08B7FF228614977CD680
:100910004517FE92DA58C41F5C967C48B7FF201733
:1009200000420A7C26E9B6FF2284F7B7FF229E43E5
:1009300017FAE57FFF2039390C3B963B8401270DE0
:100940008607913C270F968317FAC120080D1526BC
:1009500004860597153917FB3BD683CB0A961548B5
:10096000978920038E0007963D8AFFB7FF201F98C6
:10097000918927034A26F91F987FFF209189270331
:100980004A26F9301F26E0390D572660108E0000E8
:10099000DC5410A3A9025C2716108E000210A3A934
:1009A000025C270B108E000410A3A9025C263D1FD9
:1009B000018655A78417FADCC640F7FF201F9884EC
:1009C00005270817FA464AB7FF204F17FA3E5A265E
:1009D000E96FA9025C6AA902680A576F88C06F882C
:1009E000E06F88206F88406F847FFF2039108E0071
:1009F0000016FE16108E000216FE0F108E00041652
:100A0000FE08108E0000860016FE40108E00028642
:100A10000416FE37108E0004860816FE2E0D84275D
:100A200048B6FF2284F081F02604088408840A83F3
:100A300026020C838E0206C605A6849B840F848141
:100A40000A25060C84800A20F6A7805A26EBD60ACF
:100A50008E041A8D15D6098D11D6088D0DD6078DE9
:100A600009D6068D05D6058D01398606318DF88E9D
:100A7000109F893DD3891F028606E6A0E78430884F
:100A8000204A26F63089FF41390D1F26320D1B10F2
:100A9000270081109E7AECA9025C109319102500A2
:100AA00073961A841FC41F971BD11B1025006596CF
:100AB0001B8B02971BD11B102200596AA9026817D1
:100AC000FE3A0D5726089E546F88206F884017F90C
:100AD000C38660978017FF1517FF1917FF1D0A803F
:100AE00026F31700324F17F9241701F69E1917F94C
:100AF0002786239116250D866F971686039717CCA8
:100B00000EFB20090F160F170F18CC0EE0DD19177A
:100B1000F9A20F1F0F1B394FB700277A00288D3A13
:100B2000B600278B80B7002724EEC61F17FE358E30
:100B300000201700C47A00288D209E19318DF7A659
:100B400017F957B600274AB700278E00081700A9E3
:100B5000B600274AB700272BDC3986BCB7FF23F63F
:100B60000024B600278A40587900257900262408F9
:100B7000B7FF20F6FF2020037FFF20565656F800CF
:100B80002658587A002826DFF7002439CCFACE10F0
:100B90009300270EDD008D5EC60E8E02056F805A13
:100BA00026FB8E0400108E02008620A780313F268F
:100BB000FAB6FF228403B7FF227FFFC4308DF4977B
:100BC000108E0426C6151700B18E0005A689020CEA
:100BD000A189020522522506301F26F0204ADC0694
:100BE000DD0DDC08DD0F960A9711B6FF228A08B7E3
:100BF000FF228D02203C8E0080BF000017F895F682
:100C000000017A0001D75817FB9CB6000143B7FFDB
:100C100020840717F7F67FFF209658840517F7EC16
:100C20005A26E4301F26D8394F17F7E117F7DE1799
:100C3000F7DB308DF436108E04E9C6068D3C8E024B
:100C40000B8D45308DF42B108E04A7C60C8D2B8E8A
:100C500002128D34308DF426108E05C0C6208D1AF8
:100C6000CC0000DD06DD08DD0A0F020F03B6FF0031
:100C7000840226F90A0417F75339A6808140250219
:100C8000841FA7A05A26F339C606A6828A30A7A0D9
:100C90005A26F7399603810126041700813981030A
:100CA00027F8850727F4398E0380108E06C08D043F
:100CB000108E0800860410AF8131244A26F8398E40
:100CC00003B020E6308DF67286449758318DF330AC
:100CD000109F81108E028BEC81D381EDA10A5826E2
:100CE000F6394F0A1C102BF317D61CC304001F0142
:100CF000C6066F843088205A26F8394F8E0390310B
:100D00008DF322C608A6A0A7805A26F939C604A7E3
:100D1000805A26FB398E03984F8DF28DF0398E0064
:100D20003017FED54FD61CC304001F01318DF2EFE2
:100D3000C606A6A0A7843088205A26F60C1C398641
:100D4000788E02136F804A26FB8DD98DD70A5710F3
:100D50008E00006AA902683122108C000626F486F3
:100D60003097859783398DD717FF5917FF39CC0EE8
:100D7000E0DD190F160F170F1886F0978817FF3F41
:100D800017FF788D908D0BB6015D975817FCA50F56
:100D900087398E03A04FC60817FF743917F623173B
:100DA000F62A17FDE78634B7FF01B7FF21B7FF2307
:100DB000B6FF038A01B7FF0317FFAB17F6F617F765
:100DC0005C17FCC517FB3517F99F17FBBB17FABD5E
:100DD00017FC4A17F92217FBAFB6FF00840227025F
:100DE0000F0417FB1717F98117FB9D17FA9F17FCC4
:100DF0002C0D1527088E000117FB5B0A1517F6B49A
:100E000017FAF917F96317FB7F17FA8117FC0E170A
:100E1000FBF017FBD817FB7017FC6E17FBED17FBE9
:100E2000D317FB6417FC6217FAD217F93C17FB586B
:100E300017FA5A17FBE717FBDB17FBBF17FB49171E
:100E4000FC4716FF7617F97F0D5A27248607903C3A
:100E500091032F0F96879003810B2E07B600019107
:100E6000032E0DB6000226084CBE0000A789039889
:100E70003900FF00FF00FF00FF00FF00FF00FF0040
:100E8000FF00FF60FF00FF00FF00FF00FF00FF000A
:100E9000FF00FF00FF00FF00FF00FF00FF00FF005A
:100EA000FF00FF00FF00FF00FF00FF00FF00FF004A
:100EB000FF00FF00FF00FF00FF00FF00FF00FF003A
:100EC000FF00FF00FF00FF00FF00FF00FF00FF002A
:100ED000FF00FF00FF00FF00FF00FF00FF00FF001A
:100EE000FF00FF00FF00FF00FF00FF00FF00FF000A
:100EF000FF00FF00FF00FF00FF00FF00FF00FF00FA
:100F0000FF00FFC4FF00FF00FF00FF00FF00FF0025
:100F1000FF00FF00FF00FF00FF00FF00FF00FF00D9
:100F2000FF00FF00FF00FF00FF00FF00FF00FF00C9
:100F3000FF00FF00FF00FF00FF00FF00FF00FF00B9
:100F4000FF00FF00FF00FF00FF00FF00FF00FF00A9
:100F5000FF00FF00FF00FF00FF00FF00FF00FF0099
:100F6000FF00FF00FF00FF00FF00FF00FF00FF0089
:100F7000FF00FF00FF00FF00FF00FF00FF00FF0079
:100F8000FF00FF40FF00FF00FF00FF00FF00FF0029
:100F9000FF00FF00FF00FF00FF00FF00FF00FF0059
:100FA000FF00FF00FF00FF00FF00FF00FF00FF0049
:100FB000FF00FF00FF00FF00FF00FF00FF00FF0039
:100FC000FF00FF00FF00FF00FF00FF00FF00FF0029
:100FD000FF00FF00FF00FF00FF00FF00FF00FF0019
:100FE000FF00FF00FF00FF00FF00FF00FF00FF0009
:100FF000FF00FF00FF00FF00FF00FF00FF00FF7F7A
:00000001FF
