:100000004A04DF0300000800000000022000030093
:1000100000DF000054534649616C687361436472A9
:100020002020202020202020010001000400393061
:1000300036303530324C6953706D656C6554686389
:100040004620616C68732020202020202020202062
:1000500020202020202020202020202020200100DF
:100060000000000F0000000200000300DF03080092
:10007000200000DF0300000100DF03000000070490
:10008000030078007800780078000000000000008D
:100090000000000000000000000000000000000060
:1000A0000000000000000000000000000000000050
:1000B0000000000000000000000000000000000040
:1000C0000000000000000000000000000000000030
:1000D0000000000000000000000000000000000020
:1000E0000000000000000000000000000000000010
:1000F0000000000000000000000000000000000000
:100100000000353033303631386200000000000026
:1001100000000000000000000000000000000000DF
:1001200000000000000000000000000000000000CF
:1001300000000000000000000000000000000000BF
:1001400000000000000000000000000000000000AF
:10015000000000000000000000000000000000009F
:10016000000000000000000000000000000000008F
:10017000000000000000000000000000000000007F
:10018000000000000000000000000000000000006F
:10019000000000000000000000000000000000005F
:1001A000000000000000000000000000000000004F
:1001B000000000000000000000000000000000003F
:1001C000000000000000000000000000000000002F
:1001D000000000000000000000000000000000001F
:1001E000000000000000000000000000000000000F
:1001F00000000000000000000000000000000000FF
:00000001FF
