
C3
3D
40
35
C0
36
10
3E
01
32
40
20
3A
1E
20
FE
90
D2
27
40
3E
FD
32
48
20
21
1D
20
3E
A8
96
23
86
32
4A
20
C3
38
40
3E
02
32
48
20
21
1D
20
3A
1E
20
86
D6
90
32
4A
20
3E
FD
C3
60
42
3A
40
20
A7
C2
4A
40
21
41
20
C3
03
40
21
42
20
35
C2
7C
40
36
02
23
7E
A7
C2
91
40
CD
EA
40
21
44
20
7E
A7
C2
73
40
23
7E
FE
4D
C2
7C
40
21
44
20
36
01
C3
7C
40
23
7E
FE
55
C2
7C
40
36
49
21
43
20
7E
A7
C2
8A
40
21
47
20
CD
1C
05
CD
BA
40
CD
03
41
C9
2A
45
20
11
FC
FF
19
22
45
20
7D
FE
25
C2
8A
40
21
40
20
36
00
21
43
20
36
00
23
36
00
23
36
25
21
49
20
36
C0
23
36
D0
C9
2A
45
20
4E
23
46
23
5E
23
56
23
3A
44
20
A7
CA
D4
40
3E
01
32
42
20
C3
DC
40
3A
42
20
FE
02
C2
E6
40
3A
43
20
A7
C2
E6
40
22
45
20
2A
49
20
C9
3A
49
20
FE
48
DA
FD
40
3A
4A
20
FE
E0
D2
FD
40
FE
2A
D0
21
43
20
36
01
C9
CD
2C
0A
C5
E5
1A
D3
04
DB
03
77
23
13
0D
C2
08
41
AF
D3
04
DB
03
77
E1
01
20
00
09
C1
05
C2
06
41
C9
01
05
55
41
01
05
55
41
01
08
5A
41
01
08
62
41
01
0A
6A
41
01
0B
74
41
01
0E
7F
41
02
10
8D
41
02
12
AD
41
02
17
CD
41
02
18
F5
41
02
18
25
42
00
00
00
00
00
00
00
00
04
04
00
00
00
00
00
00
0C
0C
00
00
00
00
00
00
08
1C
1C
08
00
00
00
00
00
00
0C
1E
1E
1E
0E
00
00
00
00
00
00
4C
1C
3E
3F
3E
1C
0C
20
00
00
00
00
00
00
00
00
00
8D
00
3C
00
7E
00
FF
00
FF
00
7E
00
3E
00
0C
00
C0
00
01
00
00
00
00
00
00
00
00
00
00
00
00
00
35
04
79
05
7C
00
FC
01
FE
03
FF
01
FE
01
FE
04
FC
00
3A
04
00
00
00
00
00
00
00
00
00
00
00
00
62
08
F8
08
FC
03
FE
07
EC
0F
FF
07
FF
0F
BE
07
BC
0F
FD
07
FD
03
F8
01
F2
08
A8
02
04
04
00
00
00
00
00
00
00
00
00
00
12
20
C8
04
E8
03
F4
03
FC
0F
FC
07
78
0F
7A
27
FF
17
FE
0E
F8
17
FC
0F
E8
0F
FC
05
FC
17
B2
24
28
01
20
00
00
00
00
00
00
00
00
00
00
00
00
00
E1
01
FB
30
FC
07
FC
0F
FE
07
FE
2E
ED
0E
FC
1F
FE
07
FE
0F
FD
0F
F8
1F
BC
0F
FC
07
F8
03
F4
13
81
10
00
00
00
00
00
00
00
00
FF
FF
FF
FF
FF
FF
FF
FF
FF
FF
FF
32
47
20
21
4A
20
7E
FE
D0
D4
75
42
FE
30
DC
7A
42
C3
4A
40
00
36
D0
C9
00
00
36
30
C9
C9
00
00
CD
BD
0A
CD
32
46
C3
96
42
3E
10
CD
D5
05
1A
C3
CF
42
40
CD
D5
05
21
19
28
11
10
44
0E
15
CD
2A
05
3E
50
CD
D5
05
CD
69
43
21
90
2B
0E
07
CD
15
43
3E
01
CD
22
43
3E
40
CD
D5
05
CD
86
46
21
16
2E
11
15
45
1A
FE
FF
CA
E8
42
FE
5B
CA
E2
42
E6
3F
D5
CD
36
05
D1
CD
A4
43
13
3E
05
CD
D5
05
C3
C4
42
21
14
2F
C3
89
42
3E
01
CD
22
43
3E
50
CD
D5
05
0E
07
21
90
2B
06
10
11
33
45
CD
00
0A
0D
C2
F7
42
21
10
31
11
43
45
01
02
10
CD
1B
0C
3E
60
CD
D5
05
C9
11
B5
44
06
10
CD
00
0A
0D
C2
15
43
C9
F5
21
10
31
11
C5
44
01
02
10
CD
1B
0C
F1
3D
C8
F5
21
90
33
11
E5
44
06
10
CD
00
0A
F1
3D
C8
F5
11
F5
44
06
10
CD
00
0A
F1
3D
C8
F5
7C
FE
3D
C2
58
43
26
31
2D
2D
0E
01
CD
15
43
F1
FE
1B
DA
65
43
3E
1B
F5
C3
4A
43
11
6D
44
21
13
2D
01
04
08
CD
1B
0C
16
70
21
12
2E
06
00
E5
36
80
0E
05
09
36
01
E1
0E
20
09
15
C2
7C
43
11
8D
44
21
13
3C
01
04
08
CD
1B
0C
11
AD
44
21
12
32
06
08
CD
00
0A
C9
C5
E5
D5
1A
E6
80
CA
B3
43
11
05
45
C3
B6
43
11
0D
45
21
90
31
06
08
CD
00
0A
D1
E1
C1
C9
CD
34
0B
CD
32
46
3E
04
CD
22
43
CD
69
43
CD
A0
46
3E
10
CD
D5
05
0E
09
21
15
30
11
25
44
06
08
CD
A4
43
CD
00
0A
3E
05
CD
D5
05
0D
C2
E0
43
3E
01
CD
22
43
3E
60
CD
D5
05
21
15
30
11
28
45
0E
09
CD
2A
05
3E
40
CD
D5
05
C9
0F
0B
00
18
29
29
29
1B
0B
14
0D
00
11
1B
1B
11
04
12
02
14
04
1B
29
29
29
80
52
38
7E
38
52
80
00
00
10
10
7E
10
10
00
00
92
44
28
92
28
44
92
00
38
44
38
10
38
44
38
00
FE
10
38
54
38
10
FE
00
00
00
00
00
00
00
00
00
00
18
52
7E
52
18
00
00
00
18
52
7E
52
18
00
00
00
18
52
7E
52
18
00
00
F0
FF
FF
0F
08
00
00
10
04
00
00
20
02
00
00
40
02
00
00
40
01
00
00
80
01
00
00
80
01
00
00
80
01
00
00
80
01
00
00
80
02
00
00
40
02
00
00
40
04
00
00
20
08
00
00
10
30
00
00
0C
C0
FF
FF
03
80
80
83
4D
32
04
08
F0
30
7A
DD
F4
F4
DD
7A
30
00
00
00
00
00
00
00
00
E0
03
E6
03
E7
03
FF
0F
79
0F
78
0F
6C
1F
EC
1F
EC
1F
6C
1F
78
0F
79
0F
FF
0F
E7
03
E6
03
E0
03
0E
18
BE
6D
3D
3C
3D
6D
BE
18
0E
00
00
00
00
00
19
3A
6D
FA
FA
6D
3A
19
00
00
00
00
00
00
00
00
79
7C
6E
E6
E6
6E
7C
79
70
78
78
F8
F8
78
78
79
8F
0B
84
00
92
04
5B
88
0D
92
04
91
13
1B
02
8E
08
8D
FF
05
08
06
07
13
1B
30
30
30
1B
FF
38
7C
EC
FE
B7
E5
F8
60
34
0C
00
00
00
00
00
00
10
00
B8
00
FC
05
FC
0F
CC
1F
9F
1F
BF
0F
FD
1F
C8
3C
98
19
F0
3B
E0
7F
C0
3F
C4
1F
FC
0D
38
00
CD
BD
0A
CD
32
46
3E
30
CD
D5
05
21
18
25
11
7B
19
01
01
13
CD
1B
0C
21
18
29
11
8E
19
01
01
13
CD
1B
0C
21
15
25
11
A1
19
01
01
13
CD
1B
0C
21
0C
27
11
39
18
01
01
10
CD
1B
0C
21
0F
26
11
49
18
01
01
20
CD
1B
0C
21
12
25
11
69
18
01
01
28
CD
1B
0C
CD
86
46
2E
18
26
2C
3E
1A
CD
36
05
3E
0A
CD
D5
05
3E
01
84
67
FE
33
DA
BD
45
0E
03
7D
FE
18
C2
DE
45
11
1C
46
C3
02
46
FE
15
C2
E9
45
11
1F
46
C3
02
46
FE
12
C2
F4
45
11
22
46
C3
02
46
FE
0F
C2
FF
45
11
25
46
C3
02
46
11
28
46
CD
2A
05
0E
07
11
2B
46
CD
2A
05
7D
D6
03
6F
FE
09
C2
BB
45
3E
60
C3
D5
05
C9
1B
1F
1C
1B
21
1C
1B
21
1C
1D
1C
1C
1D
21
1C
1B
0F
0E
08
0D
13
12
2E
07
26
3B
11
69
46
D5
1A
3C
CD
36
05
D1
13
25
25
7D
FE
09
CA
56
46
7C
FE
2A
C2
39
46
2E
09
26
33
C3
39
46
7C
FE
2F
C2
39
46
26
29
2E
07
11
7E
46
06
08
CD
00
0A
C9
0C
0D
07
12
FF
10
0D
0E
10
0D
01
1A
0D
12
07
FF
12
24
22
24
1C
3C
42
99
A5
A5
81
42
3C
21
47
2B
01
47
2C
11
27
2E
1A
D6
40
C0
0A
D6
44
C0
7E
D6
7F
C0
AF
32
ED
20
C9
26
2B
2E
47
11
00
02
7E
19
86
19
86
FE
3F
C2
62
03
C9
ED
20
C9
CD
80
42
00
00
00
CD
63
45
CD
CB
05
CD
DF
02
CD
D4
02
CD
BD
0A
CD
CA
01
CD
78
1F
CD
61
02
CD
79
02
21
BF
21
36
01
CD
F2
02
CD
A9
01
21
27
20
7E
A7
CA
E1
46
23
7E
FE
01
D3
06
C2
EA
46
3A
2E
20
FE
70
D3
06
DA
2F
47
C3
F2
46
00
CD
B7
0A
3A
C6
20
32
E3
20
C9
CD
CB
05
CD
BD
0A
3A
E3
20
32
C6
20
CD
76
4B
00
00
00
CD
85
08
00
00
00
C3
57
06
3A
BF
21
A7
C2
AA
0E
C3
60
00
21
29
20
36
00
2A
2D
20
3A
2C
20
FE
FE
01
00
14
C4
85
01
09
22
1D
20
CD
6D
0D
21
13
20
36
01
CD
EC
47
00
00
00
00
00
D3
06
21
14
20
7E
A7
C2
A1
47
CD
D8
47
21
5D
20
7E
A7
C2
92
47
CD
77
0C
D3
06
3A
1D
20
FE
B0
DC
7F
02
3A
1D
20
FE
B0
D4
58
0D
3A
16
20
A7
CC
9D
0D
D3
06
CD
05
4C
CD
7B
48
C3
4E
47
CD
29
03
CD
DF
02
CD
D4
02
CD
CB
05
C3
73
16
CD
67
04
3A
AE
20
A7
C2
92
47
21
AC
09
22
10
20
C3
60
47
CD
98
05
CD
22
17
2E
B0
7E
A7
C8
36
00
2E
AB
7E
FE
03
CC
CF
47
CD
3B
4A
C3
98
05
CD
C2
43
CD
B9
4D
C3
98
05
CD
7C
03
E6
76
FE
54
C0
2E
ED
26
20
7E
A7
C8
2B
2B
36
03
C9
3A
16
20
A7
C8
21
00
20
36
01
C9
00
00
00
00
00
00
00
00
00
