
00
00
00
C3
4B
16
00
00
F5
C5
D5
E5
C3
E7
05
00
F5
C5
D5
E5
3E
80
32
BE
20
21
C0
20
35
CD
4B
0A
DB
01
0F
DA
66
00
3A
EA
20
A7
CA
42
00
3A
EB
20
FE
09
D2
3E
00
C6
01
27
32
EB
20
CD
AC
0A
AF
32
EA
20
3A
E9
20
A7
C2
60
00
3A
EF
20
A7
C2
E6
0E
3A
EB
20
A7
C2
6B
00
3A
BF
21
A7
C2
E6
0E
00
00
E1
D1
C1
F1
FB
C9
3E
01
C3
3F
00
3A
58
20
A7
C2
60
00
3E
01
CD
DC
08
31
00
24
FB
CD
A4
01
CD
BD
0A
21
13
30
11
50
1D
0E
04
CD
2A
05
D3
06
3A
EB
20
3D
CD
97
4A
0E
14
C2
89
01
11
6A
0B
CD
2A
05
DB
01
E6
04
CA
8E
00
06
99
AF
32
EE
20
3A
EB
20
80
27
32
EB
20
CD
AC
0A
CD
18
4C
22
F8
20
22
FC
20
CD
D4
02
CD
DF
02
CD
EA
02
CD
C5
48
06
20
CD
00
49
CD
A4
01
CD
98
05
CD
AC
4C
21
01
01
22
E5
20
CD
B4
47
CD
4C
4C
CD
8F
02
CD
E3
49
CD
D4
02
00
00
00
00
00
CD
F2
02
CD
CA
01
CD
61
02
CD
79
02
CD
46
02
CD
A9
01
CD
78
1F
3A
27
20
A7
D3
06
CA
0A
01
CD
12
10
C2
23
01
3A
28
20
FE
02
D3
06
C2
13
01
21
29
20
36
00
CD
30
04
00
00
00
2A
2D
20
3A
2C
20
FE
FE
01
00
14
C4
85
01
09
22
1D
20
CD
6D
0D
21
13
20
36
01
21
5E
20
7E
A7
C2
30
4C
21
14
20
7E
A7
C2
AA
04
21
5D
20
7E
A7
C2
62
03
CD
77
0C
D3
06
3A
1D
20
FE
B0
DC
7F
02
3A
1D
20
FE
B0
D4
58
0D
3A
16
20
A7
CC
9D
0D
CD
05
4C
CD
7B
48
C3
48
01
01
00
10
C9
11
55
0B
CD
2A
05
DB
01
0F
0F
DA
9D
01
0F
DA
A7
00
C3
8E
00
06
98
3E
01
C3
AA
00
3E
01
C3
AA
01
AF
32
E9
20
C9
00
00
00
00
00
00
C9
C5
E5
1A
77
2B
1B
0D
C2
B7
01
E1
01
20
00
09
C1
05
C2
B5
01
C9
21
02
24
11
91
18
01
03
18
CD
1B
0C
21
05
24
01
03
0A
CD
1B
0C
21
04
3D
11
D8
18
01
03
18
CD
B5
01
21
C7
3E
11
F6
18
01
03
0A
CD
B5
01
21
02
27
0E
17
11
31
18
D5
C5
06
08
CD
00
0A
C1
D1
0D
C3
5B
1D
11
EB
19
C5
06
08
CD
00
0A
C1
0D
C2
0C
02
CD
22
17
2E
00
0E
06
7E
E6
80
C4
30
02
11
05
00
19
0D
C2
21
02
C9
E5
C5
7E
E6
7F
47
23
5E
23
56
23
4E
23
7E
67
69
CD
00
0A
C1
E1
C9
CD
22
17
2E
AC
C3
CA
4B
00
21
01
27
11
17
18
C5
06
10
CD
00
0A
C1
0D
C2
52
02
C9
21
1C
25
0E
0E
11
F3
19
C5
E5
06
05
CD
00
0A
E1
24
24
C1
0D
C2
66
02
C9
11
13
1A
C3
A9
0D
3A
13
20
A7
C8
21
26
20
7E
A7
C0
36
01
C3
6D
0D
CD
22
17
2E
AE
4E
79
A7
C8
21
1B
3B
C5
11
0B
1A
E5
06
08
CD
00
0A
E1
25
25
C1
0D
C2
9B
02
C9
00
00
00
C9
00
00
00
C9
CD
8C
05
23
11
F5
20
1A
BE
1B
2B
1A
CA
C9
02
D0
C3
CB
02
BE
D0
7E
12
13
23
7E
12
C3
00
47
06
C0
11
A3
1A
21
00
20
C3
04
0B
06
C0
21
00
21
11
A3
1B
C3
04
0B
06
C0
21
00
22
C3
E4
02
06
01
21
29
20
70
CD
22
17
2E
40
70
2E
56
70
C9
06
00
C3
F4
02
06
01
21
29
20
70
CD
22
17
2E
70
70
2E
90
70
21
70
20
70
2E
7C
70
2E
88
70
C9
06
00
C3
09
03
CD
A4
01
CD
21
03
CD
02
03
21
13
20
36
00
CD
9D
4A
CD
14
49
2A
1D
20
01
03
10
CD
30
0C
0E
04
11
23
1A
C5
2A
1D
20
01
02
10
CD
18
0C
3E
08
CD
D5
05
C1
0D
C2
48
03
CD
19
49
C3
CB
05
CD
26
03
00
00
C3
A5
4A
2E
AC
35
00
CA
B0
04
CD
42
4B
C3
C6
1E
3A
EF
20
A7
C8
3A
C6
20
C3
44
0A
00
00
36
00
CD
74
4C
CD
22
4F
CD
21
03
C3
B9
1F
CD
22
17
2E
AE
34
E5
CD
8F
02
E1
2E
A0
7E
A7
CA
D4
03
2E
AE
7E
FE
06
CC
0E
04
CD
CB
05
CD
22
17
2E
A2
5E
23
56
EB
CD
0A
4F
CD
A4
4C
CD
CB
05
CD
B5
4C
CD
22
17
2E
AB
34
2E
AF
34
2E
00
06
AA
CD
E4
02
CD
CB
05
C9
00
00
21
1B
3D
79
A7
C8
00
25
25
3D
D3
06
C2
E1
03
C5
06
10
CD
34
0A
CD
42
49
00
00
00
E5
CD
F5
49
CD
0A
4F
3E
10
CD
D5
05
E1
00
00
00
00
00
00
C1
0D
C2
E9
03
C9
C5
21
14
2A
11
AD
1E
0E
10
CD
B3
05
CD
00
4D
00
00
00
00
00
00
00
00
21
50
00
CD
0A
4F
00
00
00
C1
C9
CD
22
17
2E
2D
7E
FE
04
21
06
25
D4
46
04
11
4A
04
06
0D
C3
00
0A
21
06
3D
C9
3E
08
3E
00
3E
2A
00
3E
02
00
3E
28
10
00
00
00
00
00
00
00
00
00
00
00
00
00
00
00
00
36
00
CD
02
03
21
13
20
36
00
CD
D2
0D
3A
AE
20
A7
C2
29
06
21
01
01
22
A0
20
3A
A1
20
A7
D3
06
C2
81
04
CD
83
16
21
13
20
36
01
21
1B
20
36
01
CD
07
03
21
16
20
36
01
2A
9E
20
3A
9D
20
47
C3
34
0A
00
CD
67
04
C3
58
01
CD
B6
02
CD
D4
02
00
00
AF
32
EE
20
CD
A4
01
CD
02
03
CD
21
03
21
13
2D
11
63
4B
0E
0A
CD
B3
05
CD
97
4B
3A
E3
20
A7
C4
0A
47
CD
C0
4C
CD
F8
4C
CD
86
4B
CD
CB
05
CD
A9
01
C3
73
16
CD
8C
05
23
11
F5
20
1A
BE
1B
2B
1A
CA
C9
02
D0
C3
CB
02
00
00
00
00
00
00
00
00
00
00
00
F3
78
D3
05
06
0A
0E
00
0D
C2
12
05
05
C2
10
05
FB
C9
4E
23
46
23
79
86
77
23
78
86
77
C9
0E
02
1A
D5
CD
36
05
D1
13
0D
C2
2A
05
C9
CD
9B
0B
06
05
D3
06
CD
00
0A
C5
AF
77
01
20
00
09
77
09
77
09
C1
C9
CD
8C
05
3A
F1
20
A7
C8
AF
32
F1
20
E5
2A
F2
20
EB
E1
7E
83
27
77
5F
23
7E
8A
27
77
57
23
7E
23
66
6F
7A
CD
74
05
7B
D5
F5
0F
0F
0F
0F
E6
0F
CD
87
05
F1
E6
0F
CD
87
05
D1
C9
C6
1C
C3
36
05
3A
C6
20
0F
21
F8
20
D8
21
FC
20
C9
21
01
24
0E
1C
06
DF
E5
C5
36
00
11
20
00
19
05
C2
A1
05
C1
E1
23
0D
C2
9D
05
C9
D5
1A
CD
36
05
D1
3E
07
32
C0
20
3A
C0
20
3D
C2
BE
05
13
0D
C2
B3
05
C9
3E
40
C3
D5
05
3E
80
C3
D5
05
32
C0
20
3A
C0
20
A7
D3
06
C2
D8
05
C9
00
00
00
00
00
3A
DC
20
A7
CA
8C
0E
DB
01
E6
06
C4
16
06
CD
7C
03
E6
10
06
01
21
CB
20
C2
0B
06
7E
A7
23
C2
0B
06
2B
06
00
70
2A
D9
20
23
22
D9
20
C3
60
00
3E
01
32
E1
20
C9
21
00
00
22
CB
20
C9
CD
42
08
C3
A0
06
3A
EF
20
A7
C8
E1
C3
62
03
00
00
00
00
00
3E
20
C3
D5
05
3E
05
C3
D5
05
01
50
06
CD
7C
03
E6
60
CA
55
06
0D
C2
44
06
05
C2
44
06
C9
E1
C9
21
CB
20
11
C2
08
06
1A
CD
04
0B
00
00
00
00
00
00
11
9A
08
21
17
27
0E
17
CD
2A
05
21
12
27
11
5B
1C
CD
04
07
21
10
27
CD
04
07
21
0E
27
0E
05
CD
06
07
21
0E
33
11
43
09
06
28
CD
00
0A
11
B1
08
0E
10
21
06
2A
CD
2A
05
3A
DC
20
A7
CA
78
08
3A
DA
20
FE
20
D2
78
08
CD
16
07
CD
7C
03
E6
60
FE
40
CC
2F
07
FE
20
CC
85
07
3A
E1
20
A7
C2
78
08
3A
CC
20
A7
C2
CF
07
01
30
01
CD
26
07
CD
1E
07
3A
DA
20
FE
1D
C2
A0
06
06
05
C5
21
06
2A
06
20
CD
EB
09
CD
3C
06
11
B1
08
21
06
2A
0E
04
CD
2A
05
CD
3C
06
C1
05
C2
E2
06
C3
A0
06
0E
0B
06
05
CD
00
0A
C5
01
60
01
09
C1
0D
C2
06
07
C9
2A
DD
20
3E
2A
C3
36
05
2A
DD
20
3E
1B
C3
36
05
0D
C2
26
07
05
C2
26
07
C9
CD
41
06
CD
1E
07
2A
DD
20
7D
FE
11
CA
60
07
FE
0F
CA
69
07
7C
FE
33
CA
74
07
24
24
7C
FE
35
D2
54
07
C3
5A
07
CD
1E
07
21
0D
36
22
DD
20
C3
16
07
7C
FE
3B
D2
79
07
C3
6F
07
7C
FE
3B
D2
7F
07
24
24
C3
5A
07
26
34
C3
49
07
21
0F
27
C3
5A
07
21
0D
27
C3
5A
07
CD
41
06
CD
1E
07
2A
DD
20
7D
FE
11
CA
A9
07
FE
0F
CA
BA
07
7C
FE
28
DA
C3
07
FE
34
C2
AF
07
26
33
C3
AF
07
7C
FE
28
DA
B4
07
25
25
C3
5A
07
21
11
27
C3
5A
07
7C
FE
28
DA
C9
07
C3
AF
07
21
0F
3B
C3
5A
07
21
11
3B
C3
5A
07
01
FF
20
CD
26
07
3A
DB
20
FE
0A
D2
5D
08
3A
DD
20
FE
11
CA
FD
07
FE
0F
CA
03
08
3A
DE
20
FE
32
D2
0B
08
CD
3B
08
C6
16
CD
42
08
C3
A0
06
CD
3B
08
