20
20
20
20
20
20
20
20
20
20
20
20
20
73
63
72
61
6C
69
6E
67
73
20
20
20
20
20
20
20
20
20
20
20
20
20
20
20
20
20
20
20
20
20
20
20
73
75
76
65
72
6D
61
6E
20
20
20
20
20
20
20
20
20
20
20
20
20
20
20
20
20
20
20
20
20
66
72
65
64
65
72
69
63
20
6D
61
68
65
20
20
20
20
20
20
20
20
20
20
20
20
20
20
20
20
20
20
20
6A
6F
20
74
6F
6D
69
79
6F
72
69
20
20
20
20
20
20
20
20
20
20
20
20
20
20
20
20
20
20
20
20
20
20
62
72
69
61
6E
20
73
61
6C
6C
65
65
20
20
20
20
20
20
20
20
20
20
20
20
20
20
20
20
20
20
70
68
69
6C
6C
69
70
20
6D
63
6D
61
68
6F
6E
20
20
20
20
20
20
20
20
20
20
20
20
20
20
20
20
20
20
64
75
73
74
69
6E
20
68
75
62
62
61
72
64
20
20
20
20
20
20
20
20
20
20
20
20
20
20
20
20
20
20
20
64
61
6E
69
65
6C
20
62
61
75
7A
61
20
20
20
20
20
20
20
20
20
0
0
0
0
0
0
0
0
0
0
0
0
0
0
0
0
0
0
0
0
0
0
0
0
0
0
0
0
0
0
0
0
0
0
0
0
0
0
0
0
0
0
0
0
0
0
0
0
0
0
0
0
0
0
0
0
0
0
0
0
0
0
0
0
0
0
0
0
0
0
0
0
0
0
0
0
0
0
0
0
0
0
0
0
0
0
0
0
0
0
0
0
0
0
0
0
0
0
0
0
0
0
0
0
0
0
0
0
0
0
0
0
0
0
0
0
0
0
0
0
0
0
0
0
0
0
0
0
0
0
0
0
0
0
0
0
0
0
0
0
0
0
0
0
0
0
0
0
0
0
0
0
0
0
0
0
0
0
0
0
0
0
0
0
0
0
0
0
0
0
0
0
0
0
0
0
0
0
0
0
0
0
0
0
0
0
0
0
0
0
0
0
0
0
0
0
0
0
0
0
0
0
0
0
0
0
0
0
0
0
0
0
0
0
0
0
0
0
0
0
0
0
0
0
0
0
0
0
0
0
0
0
0
0
0
0
0
0
0
0
0
0
0
0
0
0
0
0
0
0
0
0
0
0
0
0
